pipeline_2/tb_pipeline1.vcd
$date
	Wed Oct 27 20:59:49 2021
$end
$version
	Icarus Verilog
$end
$timescale
	10ns
$end
$scope module tb_pipeline1 $end
$var reg 1 ! Clk $end
$var reg 1 " Run $end
$scope module u_pipeline1 $end
$var wire 1 ! clk $end
$var wire 1 " run $end
$var wire 1 # ctrl_RegWr $end
$var wire 1 $ ctrl_RegDst $end
$var wire 1 % ctrl_R_type $end
$var wire 1 & ctrl_MemtoReg $end
$var wire 1 ' ctrl_MemWr $end
$var wire 1 ( ctrl_Jump $end
$var wire 1 ) ctrl_ExtOp $end
$var wire 1 * ctrl_Branch $end
$var wire 1 + ctrl_ALUSrc $end
$var wire 3 , ctrl_ALUOp [2:0] $end
$var wire 32 - Instruction [31:0] $end
$scope module u_controller $end
$var wire 1 + ALUSrc $end
$var wire 1 * Branch $end
$var wire 1 ) ExtOp $end
$var wire 1 ( Jump $end
$var wire 1 ' MemWr $end
$var wire 1 & MemtoReg $end
$var wire 1 $ RegDst $end
$var wire 1 # RegWr $end
$var wire 1 . sw $end
$var wire 1 / ori $end
$var wire 1 0 lw $end
$var wire 1 1 jump $end
$var wire 1 2 beq $end
$var wire 1 3 addiu $end
$var wire 1 % R_type $end
$var wire 32 4 Instruction [31:0] $end
$var wire 3 5 ALUop [2:0] $end
$var wire 3 6 ALUfunc [2:0] $end
$var wire 3 7 ALUctr [2:0] $end
$scope module alud $end
$var wire 6 8 func [5:0] $end
$var wire 3 9 outCtr [2:0] $end
$upscope $end
$scope module opd $end
$var wire 6 : op [5:0] $end
$var wire 1 . sw $end
$var wire 1 / ori $end
$var wire 1 0 lw $end
$var wire 1 1 jump $end
$var wire 1 2 beq $end
$var wire 1 3 addiu $end
$var wire 1 % R_type $end
$upscope $end
$upscope $end
$scope module u_datapath $end
$var wire 3 ; ALUOp [2:0] $end
$var wire 1 + ALUSrc $end
$var wire 1 * Branch $end
$var wire 1 $ ExtOp $end
$var wire 1 < IF_flush $end
$var wire 32 = Instruction [31:0] $end
$var wire 1 ( Jump $end
$var wire 1 ' MemWr $end
$var wire 1 & MemtoReg $end
$var wire 1 ) RegDst $end
$var wire 1 # RegWr $end
$var wire 1 > bz_ahead $end
$var wire 1 ! clk $end
$var wire 1 ? ex_me_bubble $end
$var wire 1 @ ex_me_bz $end
$var wire 1 A ex_me_stall $end
$var wire 1 B id_ex_bubble $end
$var wire 1 C id_ex_stall $end
$var wire 1 D if_id_bubble $end
$var wire 1 E if_id_stall $end
$var wire 1 F me_wr_bubble $end
$var wire 1 G me_wr_stall $end
$var wire 1 H pc_stall $end
$var wire 1 " run $end
$var wire 1 I zero_ahead $end
$var wire 32 J u_pc_pc_out [31:0] $end
$var wire 32 K u_exec_target [31:0] $end
$var wire 1 L u_exec_alu_zero $end
$var wire 32 M u_exec_alu_result [31:0] $end
$var wire 32 N u_datamem_dataout [31:0] $end
$var wire 16 O si_im [15:0] $end
$var wire 5 P si_Rt [4:0] $end
$var wire 5 Q si_Rs [4:0] $end
$var wire 5 R si_Rd [4:0] $end
$var wire 32 S rfile_busB [31:0] $end
$var wire 32 T rfile_busA [31:0] $end
$var wire 32 U pc_inc_out [31:0] $end
$var wire 32 V me_wr_databack [31:0] $end
$var wire 5 W me_wr_Rw_out [4:0] $end
$var wire 1 X me_wr_RegWr_out $end
$var wire 1 Y me_wr_MemtoReg_out $end
$var wire 32 Z me_wr_Dataout_out [31:0] $end
$var wire 32 [ me_wr_ALUout_out [31:0] $end
$var wire 5 \ m_rt_rd_Rw [4:0] $end
$var wire 32 ] m_real_newpc [31:0] $end
$var wire 1 ^ m_hazard_RegWr $end
$var wire 1 _ m_hazard_MemtoReg $end
$var wire 32 ` m_bz_newpc [31:0] $end
$var wire 1 a load_use_stall $end
$var wire 32 b jump_target_pc [31:0] $end
$var wire 32 c iunit_instruction [31:0] $end
$var wire 32 d imm32_ahead [31:0] $end
$var wire 32 e if_id_pc_inc_out [31:0] $end
$var wire 32 f if_id_instruction_out [31:0] $end
$var wire 32 g id_ex_pc_inc_out [31:0] $end
$var wire 32 h id_ex_jump_target [31:0] $end
$var wire 1 i id_ex_jump $end
$var wire 16 j id_ex_imm_out [15:0] $end
$var wire 32 k id_ex_busB_out [31:0] $end
$var wire 32 l id_ex_busA_out [31:0] $end
$var wire 5 m id_ex_Rt_out [4:0] $end
$var wire 5 n id_ex_Rs_out [4:0] $end
$var wire 1 o id_ex_RegWr_out $end
$var wire 1 p id_ex_RegDst_out $end
$var wire 5 q id_ex_Rd_out [4:0] $end
$var wire 1 r id_ex_MemtoReg_out $end
$var wire 1 s id_ex_MemWr_out $end
$var wire 1 t id_ex_ExtOp_out $end
$var wire 1 u id_ex_Branch_out $end
$var wire 1 v id_ex_ALUSrc_out $end
$var wire 3 w id_ex_ALUOp_out [2:0] $end
$var wire 32 x forward_b_target [31:0] $end
$var wire 2 y forward_b [1:0] $end
$var wire 32 z forward_a_target [31:0] $end
$var wire 2 { forward_a [1:0] $end
$var wire 32 | ex_me_jump_target [31:0] $end
$var wire 1 } ex_me_jump $end
$var wire 32 ~ ex_me_busB_out [31:0] $end
$var wire 1 !" ex_me_Zero_out $end
$var wire 32 "" ex_me_Target_out [31:0] $end
$var wire 5 #" ex_me_Rw_out [4:0] $end
$var wire 1 $" ex_me_RegWr_out $end
$var wire 1 %" ex_me_MemtoReg_out $end
$var wire 1 &" ex_me_MemWr_out $end
$var wire 1 '" ex_me_Branch_out $end
$var wire 32 (" ex_me_ALUout_out [31:0] $end
$var wire 32 )" bz_target_ahead [31:0] $end
$scope module ext_bz_ahead $end
$var wire 1 $ ExtOp $end
$var wire 16 *" im [15:0] $end
$var wire 32 +" Im [31:0] $end
$upscope $end
$scope module m_forward_a $end
$var wire 32 ," W [31:0] $end
$var wire 32 -" V [31:0] $end
$var wire 32 ." U [31:0] $end
$var wire 2 /" Sel [1:0] $end
$var reg 32 0" F [31:0] $end
$upscope $end
$scope module m_forward_b $end
$var wire 32 1" W [31:0] $end
$var wire 32 2" V [31:0] $end
$var wire 32 3" U [31:0] $end
$var wire 2 4" Sel [1:0] $end
$var reg 32 5" F [31:0] $end
$upscope $end
$scope module m_mem_to_reg $end
$var wire 1 Y Selm $end
$var wire 32 6" B [31:0] $end
$var wire 32 7" A [31:0] $end
$var reg 32 8" R [31:0] $end
$upscope $end
$scope module m_rt_rd $end
$var wire 1 p Selm $end
$var wire 5 9" B [4:0] $end
$var wire 5 :" A [4:0] $end
$var reg 5 ;" R [4:0] $end
$upscope $end
$scope module mux_bz_newpc $end
$var wire 1 @ Selm $end
$var wire 32 <" B [31:0] $end
$var wire 32 =" A [31:0] $end
$var reg 32 >" R [31:0] $end
$upscope $end
$scope module mux_real_pc $end
$var wire 2 ?" Sel [1:0] $end
$var wire 32 @" V [31:0] $end
$var wire 32 A" W [31:0] $end
$var wire 32 B" U [31:0] $end
$var reg 32 C" F [31:0] $end
$upscope $end
$scope module r_exec_mem $end
$var wire 1 ! Clk $end
$var wire 5 D" Rw [4:0] $end
$var wire 1 ? bubble $end
$var wire 1 A stall $end
$var wire 32 E" jump_target [31:0] $end
$var wire 32 F" busB [31:0] $end
$var wire 1 L Zero $end
$var wire 32 G" Target [31:0] $end
$var wire 1 o RegWr $end
$var wire 1 r MemtoReg $end
$var wire 1 s MemWr $end
$var wire 1 i Jump $end
$var wire 1 u Branch $end
$var wire 32 H" ALUout [31:0] $end
$var reg 32 I" ALUout_out [31:0] $end
$var reg 1 '" Branch_out $end
$var reg 1 } Jump_out $end
$var reg 1 &" MemWr_out $end
$var reg 1 %" MemtoReg_out $end
$var reg 1 $" RegWr_out $end
$var reg 5 J" Rw_out [4:0] $end
$var reg 32 K" Target_out [31:0] $end
$var reg 1 !" Zero_out $end
$var reg 32 L" busB_out [31:0] $end
$var reg 32 M" jump_target_out [31:0] $end
$upscope $end
$scope module r_id_ex $end
$var wire 1 + ALUSrc $end
$var wire 3 N" ALUctr [2:0] $end
$var wire 1 * Branch $end
$var wire 1 ! Clk $end
$var wire 1 $ ExtOp $end
$var wire 1 ( Jump $end
$var wire 1 ' MemWr $end
$var wire 1 _ MemtoReg $end
$var wire 1 ) RegDst $end
$var wire 1 ^ RegWr $end
$var wire 1 B bubble $end
$var wire 32 O" jump_target [31:0] $end
$var wire 1 C stall $end
$var wire 32 P" pc_inc [31:0] $end
$var wire 16 Q" imm [15:0] $end
$var wire 32 R" busB [31:0] $end
$var wire 32 S" busA [31:0] $end
$var wire 5 T" Rt [4:0] $end
$var wire 5 U" Rs [4:0] $end
$var wire 5 V" Rd [4:0] $end
$var reg 1 v ALUSrc_out $end
$var reg 3 W" ALUctr_out [2:0] $end
$var reg 1 u Branch_out $end
$var reg 1 t ExtOp_out $end
$var reg 1 i Jump_out $end
$var reg 1 s MemWr_out $end
$var reg 1 r MemtoReg_out $end
$var reg 5 X" Rd_out [4:0] $end
$var reg 1 p RegDst_out $end
$var reg 1 o RegWr_out $end
$var reg 5 Y" Rs_out [4:0] $end
$var reg 5 Z" Rt_out [4:0] $end
$var reg 32 [" busA_out [31:0] $end
$var reg 32 \" busB_out [31:0] $end
$var reg 16 ]" imm_out [15:0] $end
$var reg 32 ^" jump_target_out [31:0] $end
$var reg 32 _" pc_inc_out [31:0] $end
$upscope $end
$scope module r_if_reg $end
$var wire 1 ! Clk $end
$var wire 1 D bubble $end
$var wire 1 E stall $end
$var wire 32 `" pc_inc [31:0] $end
$var wire 32 a" instruction [31:0] $end
$var reg 32 b" instruction_out [31:0] $end
$var reg 32 c" pc_inc_out [31:0] $end
$upscope $end
$scope module r_mem_wr $end
$var wire 32 d" ALUout [31:0] $end
$var wire 1 ! Clk $end
$var wire 1 %" MemtoReg $end
$var wire 1 $" RegWr $end
$var wire 5 e" Rw [4:0] $end
$var wire 1 F bubble $end
$var wire 1 G stall $end
$var wire 32 f" Dataout [31:0] $end
$var reg 32 g" ALUout_out [31:0] $end
$var reg 32 h" Dataout_out [31:0] $end
$var reg 1 Y MemtoReg_out $end
$var reg 1 X RegWr_out $end
$var reg 5 i" Rw_out [4:0] $end
$upscope $end
$scope module u_datamem $end
$var wire 1 ! Clk $end
$var wire 32 j" Datain [31:0] $end
$var wire 1 &" MemWr $end
$var wire 32 k" ReadAddr [31:0] $end
$var wire 1 " Run $end
$var wire 32 l" WriteAddr [31:0] $end
$var reg 32 m" Dataout [31:0] $end
$upscope $end
$scope module u_exec $end
$var wire 1 v ALUSrc $end
$var wire 3 n" ALUctr [2:0] $end
$var wire 1 t ExtOp $end
$var wire 32 o" busA [31:0] $end
$var wire 32 p" busB [31:0] $end
$var wire 16 q" imm [15:0] $end
$var wire 32 r" pc_inc [31:0] $end
$var wire 1 s" overflow $end
$var wire 32 t" imm32 [31:0] $end
$var wire 1 L Zero $end
$var wire 32 u" Target [31:0] $end
$var wire 32 v" ALUout [31:0] $end
$var wire 32 w" ALUinB [31:0] $end
$scope module ALU $end
$var wire 32 x" H [31:0] $end
$var wire 1 y" I $end
$var wire 1 z" J $end
$var wire 32 {" input_a [31:0] $end
$var wire 3 |" input_aluctr [2:0] $end
$var wire 1 s" out_overflow $end
$var wire 1 L out_zero $end
$var wire 32 }" out_result [31:0] $end
$var wire 32 ~" input_b [31:0] $end
$var wire 1 !# Subctr $end
$var wire 1 "# SIGctr $end
$var wire 1 ## Ovctr $end
$var wire 2 $# OPctr [1:0] $end
$var wire 1 %# Less $end
$var wire 32 &# G [31:0] $end
$var wire 1 '# Add_zero $end
$var wire 1 (# Add_sign $end
$var wire 32 )# Add_result [31:0] $end
$var wire 1 *# Add_overflow $end
$var wire 1 +# Add_carry $end
$scope module d0 $end
$var wire 3 ,# ALUctr [2:0] $end
$var wire 1 ## OVctr $end
$var wire 1 !# SUBctr $end
$var wire 1 "# SIGctr $end
$var wire 2 -# OPctr [1:0] $end
$upscope $end
$scope module multiplexer1 $end
$var wire 2 .# Sel [1:0] $end
$var wire 32 /# V [31:0] $end
$var wire 32 0# W [31:0] $end
$var wire 32 1# U [31:0] $end
$var reg 32 2# F [31:0] $end
$upscope $end
$scope module multiplexer2 $end
$var wire 32 3# A [31:0] $end
$var wire 32 4# B [31:0] $end
$var wire 1 %# Selm $end
$var reg 32 5# R [31:0] $end
$upscope $end
$scope module multiplexer3 $end
$var wire 1 y" A $end
$var wire 1 z" B $end
$var wire 1 "# Selm $end
$var reg 1 %# R $end
$upscope $end
$scope module n_adder $end
$var wire 32 6# X [31:0] $end
$var wire 32 7# Y [31:0] $end
$var wire 1 !# carryin $end
$var reg 1 *# AddOverflow $end
$var reg 1 (# AddSign $end
$var reg 1 '# AddZero $end
$var reg 32 8# S [31:0] $end
$var reg 1 +# carryout $end
$upscope $end
$upscope $end
$scope module ext $end
$var wire 1 t ExtOp $end
$var wire 16 9# im [15:0] $end
$var wire 32 :# Im [31:0] $end
$upscope $end
$scope module muxALUinB $end
$var wire 32 ;# A [31:0] $end
$var wire 32 <# B [31:0] $end
$var wire 1 v Selm $end
$var reg 32 =# R [31:0] $end
$upscope $end
$upscope $end
$scope module u_foraward $end
$var wire 1 ># c1a $end
$var wire 1 ?# c1b $end
$var wire 1 @# c2a $end
$var wire 1 A# c2b $end
$var wire 5 B# ex_me_Rw [4:0] $end
$var wire 1 $" ex_me_wb $end
$var wire 5 C# id_ex_Rs [4:0] $end
$var wire 5 D# id_ex_Rt [4:0] $end
$var wire 5 E# me_wr_Rw [4:0] $end
$var wire 1 X me_wr_wb $end
$var wire 2 F# forward_b [1:0] $end
$var wire 2 G# forward_a [1:0] $end
$upscope $end
$scope module u_hazard_detection $end
$var wire 1 r id_ex_MemtoReg $end
$var wire 5 H# id_ex_Rt [4:0] $end
$var wire 1 a stall_out $end
$var wire 5 I# if_id_Rt [4:0] $end
$var wire 5 J# if_id_Rs [4:0] $end
$upscope $end
$scope module u_iunit $end
$var wire 1 ! Clk $end
$var wire 1 " Run $end
$var wire 32 K# pc_out [31:0] $end
$var wire 32 L# pc [31:0] $end
$var wire 32 M# Instruction [31:0] $end
$scope module instructionMem $end
$var wire 1 ! clk $end
$var wire 1 " run $end
$var wire 32 N# addr [31:0] $end
$var reg 32 O# Instruction [31:0] $end
$upscope $end
$upscope $end
$scope module u_pc $end
$var wire 1 ! clk $end
$var wire 32 P# newpc [31:0] $end
$var wire 1 " run $end
$var wire 1 H stall $end
$var reg 32 Q# pc [31:0] $end
$upscope $end
$scope module u_rfile $end
$var wire 1 ! Clk $end
$var wire 1 # RegWr $end
$var wire 1 " Run $end
$var wire 5 R# Rw [4:0] $end
$var wire 32 S# busA [31:0] $end
$var wire 32 T# busB [31:0] $end
$var wire 32 U# busW [31:0] $end
$var wire 5 V# Rt [4:0] $end
$var wire 5 W# Rs [4:0] $end
$upscope $end
$scope module u_si $end
$var wire 32 X# Instruction [31:0] $end
$var wire 16 Y# im [15:0] $end
$var wire 5 Z# Rt [4:0] $end
$var wire 5 [# Rs [4:0] $end
$var wire 5 \# Rd [4:0] $end
$upscope $end
$upscope $end
$upscope $end
$upscope $end
$enddefinitions $end
#0
$dumpvars
b0 \#
b0 [#
b0 Z#
b0 Y#
b0 X#
b0 W#
b0 V#
b0 U#
b0 T#
b0 S#
b0 R#
b0 Q#
b100 P#
b0 O#
b0 N#
b0 M#
b0 L#
b100 K#
b0 J#
b0 I#
b0 H#
b0 G#
b0 F#
b0 E#
b0 D#
b0 C#
b0 B#
0A#
0@#
0?#
0>#
b0 =#
b0 <#
b0 ;#
b0 :#
b0 9#
b0 8#
b0 7#
b0 6#
b0 5#
b1 4#
b0 3#
b0 2#
b0 1#
b0 0#
b0 /#
b0 .#
b0 -#
b0 ,#
0+#
0*#
b0 )#
0(#
1'#
b0 &#
0%#
b0 $#
0##
0"#
0!#
b0 ~"
b0 }"
b0 |"
b0 {"
0z"
0y"
b0 x"
b0 w"
b0 v"
b0 u"
b0 t"
0s"
b0 r"
b0 q"
b0 p"
b0 o"
b0 n"
bx m"
b0 l"
b0 k"
b0 j"
b0 i"
b0 h"
b0 g"
bx f"
b0 e"
b0 d"
b0 c"
b0 b"
b0 a"
b100 `"
b0 _"
b0 ^"
b0 ]"
b0 \"
b0 ["
b0 Z"
b0 Y"
b0 X"
b0 W"
b0 V"
b0 U"
b0 T"
b0 S"
b0 R"
b0 Q"
b0 P"
b0 O"
b1 N"
b0 M"
b0 L"
b0 K"
b0 J"
b0 I"
b0 H"
b0 G"
b0 F"
b0 E"
b0 D"
b100 C"
b100 B"
b0 A"
b0 @"
b0 ?"
b100 >"
b100 ="
b0 <"
b0 ;"
b0 :"
b0 9"
b0 8"
b0 7"
b0 6"
b0 5"
b0 4"
b0 3"
b0 2"
b0 1"
b0 0"
b0 /"
b0 ."
b0 -"
b0 ,"
b0 +"
b0 *"
b0 )"
b0 ("
0'"
0&"
0%"
0$"
b0 #"
b0 ""
0!"
b0 ~
0}
b0 |
b0 {
b0 z
b0 y
b0 x
b0 w
0v
0u
0t
0s
0r
b0 q
0p
0o
b0 n
b0 m
b0 l
b0 k
b0 j
0i
b0 h
b0 g
b0 f
b0 e
b0 d
b0 c
b0 b
0a
b100 `
0_
1^
b100 ]
b0 \
b0 [
b0 Z
0Y
0X
b0 W
b0 V
b100 U
b0 T
b0 S
b0 R
b0 Q
b0 P
b0 O
bx N
b0 M
1L
b0 K
b0 J
1I
0H
0G
0F
0E
0D
0C
0B
0A
0@
0?
0>
b0 =
0<
b1 ;
b0 :
b1 9
b0 8
b1 7
b1 6
b1 5
b0 4
03
02
01
00
0/
0.
b0 -
b1 ,
0+
0*
0)
0(
0'
0&
1%
1$
1#
0"
0!
$end
#5
1##
1"#
b100 )"
b100 @"
b100 e
b100 P"
b100 c"
1o
b1 w
b1 W"
b1 n"
b1 |"
b1 ,#
1t
1!"
bx Z
bx 6"
bx h"
1!
#10
1"
0!
#15
1$"
b100 K
b100 G"
b100 u"
b100 g
b100 _"
b100 r"
1!
#20
b1000 `
b1000 >"
b1000 ]
b1000 C"
b1000 P#
b1000 U
b1000 ="
b1000 B"
b1000 `"
b1000 K#
b100 J
b100 L#
b100 N#
b100 Q#
b10001100000100010000000000000000 c
b10001100000100010000000000000000 a"
b10001100000100010000000000000000 M#
b10001100000100010000000000000000 O#
b1 N
b1 f"
b1 m"
0!
#25
b0 ,
b0 7
b0 ;
b0 N"
1)
1+
1_
b10001 P
b10001 T"
b10001 I#
b10001 V#
b10001 Z#
b10001000000000000000000 b
b10001000000000000000000 A"
b10001000000000000000000 O"
b0 5
0$
0%
1&
10
b100011 :
b10001100000100010000000000000000 -
b10001100000100010000000000000000 4
b10001100000100010000000000000000 =
b10001100000100010000000000000000 f
b10001100000100010000000000000000 b"
b10001100000100010000000000000000 X#
b1000 )"
b1000 @"
b1000 e
b1000 P"
b1000 c"
b100 ""
b100 <"
b100 K"
1X
b1 Z
b1 6"
b1 h"
1!
#30
b1100 `
b1100 >"
b1100 ]
b1100 C"
b1100 P#
b10001100000100100000000000000001 c
b10001100000100100000000000000001 a"
b10001100000100100000000000000001 M#
b10001100000100100000000000000001 O#
b1100 U
b1100 ="
b1100 B"
b1100 `"
b1100 K#
b1000 J
b1000 L#
b1000 N#
b1000 Q#
0!
#35
b10001 \
b10001 ;"
b10001 D"
b0 6
b0 9
1_
1^
0##
b1 d
b1 +"
0E
0H
0a
0"#
b10010 P
b10010 T"
b10010 I#
b10010 V#
b10010 Z#
b1 O
b1 *"
b1 Q"
b1 Y#
b10010000000000000000100 b
b10010000000000000000100 A"
b10010000000000000000100 O"
b1 8
b10001000000000000000000 h
b10001000000000000000000 E"
b10001000000000000000000 ^"
b1000 K
b1000 G"
b1000 u"
b1000 g
b1000 _"
b1000 r"
b10001 m
b10001 9"
b10001 Z"
b10001 D#
b10001 H#
1r
1p
b0 w
b0 W"
b0 n"
b0 |"
b0 ,#
1v
0t
b10001100000100100000000000000001 -
b10001100000100100000000000000001 4
b10001100000100100000000000000001 =
b10001100000100100000000000000001 f
b10001100000100100000000000000001 b"
b10001100000100100000000000000001 X#
b10000 )"
b10000 @"
b1100 e
b1100 P"
b1100 c"
1!
#40
b10000 `
b10000 >"
b10000 ]
b10000 C"
b10000 P#
b10000 U
b10000 ="
b10000 B"
b10000 `"
b10000 K#
b1100 J
b1100 L#
b1100 N#
b1100 Q#
b10000100101010000000100000 c
b10000100101010000000100000 a"
b10000100101010000000100000 M#
b10000100101010000000100000 O#
0!
#45
b1 M
b1 H"
b1 v"
b1 }"
b1 2#
0L
0'#
b1 )#
b1 1#
b1 8#
b1 /#
b1 x"
b1 7#
b1 w"
b1 ~"
b1 =#
b10010 \
b10010 ;"
b10010 D"
b1 ,
b1 7
b1 ;
b1 N"
b1 6
b1 9
0)
0+
0^
b11111111111111111010000000100000 d
b11111111111111111010000000100000 +"
0_
1#
1E
1H
1a
b10000 Q
b10000 U"
b10000 J#
b10000 W#
b10000 [#
b10100 R
b10100 V"
b10100 \#
b1010000000100000 O
b1010000000100000 *"
b1010000000100000 Q"
b1010000000100000 Y#
b1000010010101000000010000000 b
b1000010010101000000010000000 A"
b1000010010101000000010000000 O"
b100000 8
b1 5
1$
1%
0&
00
b0 :
b1 t"
b1 :#
b1 <#
b10000100101010000000100000 -
b10000100101010000000100000 4
b10000100101010000000100000 =
b10000100101010000000100000 f
b10000100101010000000100000 b"
b10000100101010000000100000 X#
b11111111111111101000000010010000 )"
b11111111111111101000000010010000 @"
b10000 e
b10000 P"
b10000 c"
b10010000000000000000100 h
b10010000000000000000100 E"
b10010000000000000000100 ^"
b10000 K
b10000 G"
b10000 u"
b1100 g
b1100 _"
b1100 r"
b1 j
b1 ]"
b1 q"
b1 9#
b10010 m
b10010 9"
b10010 Z"
b10010 D#
b10010 H#
b10001000000000000000000 |
b10001000000000000000000 M"
b10001 #"
b10001 J"
b10001 e"
b10001 B#
b1000 ""
b1000 <"
b1000 K"
1%"
1!
#50
b10000100011010100000100010 c
b10000100011010100000100010 a"
b10000100011010100000100010 M#
b10000100011010100000100010 O#
0!
#55
b1 M
b1 H"
b1 v"
b1 }"
b1 2#
0L
0'#
b1 )#
b1 1#
b1 8#
b1 /#
b1 x"
b1 7#
b1 x
b1 5"
b1 p"
b1 ;#
b1 V
b1 -"
b1 2"
b1 8"
b1 U#
b10100 \
b10100 ;"
b10100 D"
b1 w"
b1 ~"
b1 =#
1^
1##
b10 y
b10 4"
b10 F#
1?#
b11111111111111111010000000100000 t"
b11111111111111111010000000100000 :#
b11111111111111111010000000100000 <#
0E
0H
0a
1"#
1Y
b10001 W
b10001 i"
b10001 E#
b10001 R#
b10010000000000000000100 |
b10010000000000000000100 M"
b10010 #"
b10010 J"
b10010 e"
b10010 B#
b1 ("
b1 ,"
b1 1"
b1 I"
b1 d"
b1 k"
b1 l"
0!"
b10000 ""
b10000 <"
b10000 K"
b1000010010101000000010000000 h
b1000010010101000000010000000 E"
b1000010010101000000010000000 ^"
b11111111111111101000000010010000 K
b11111111111111101000000010010000 G"
b11111111111111101000000010010000 u"
b10000 g
b10000 _"
b10000 r"
b1010000000100000 j
b1010000000100000 ]"
b1010000000100000 q"
b1010000000100000 9#
b10100 q
b10100 :"
b10100 X"
b10000 n
b10000 Y"
b10000 C#
0o
0r
0p
b1 w
b1 W"
b1 n"
b1 |"
b1 ,#
0v
1t
1!
#60
b10100 `
b10100 >"
b10100 ]
b10100 C"
b10100 P#
b10100 U
b10100 ="
b10100 B"
b10100 `"
b10100 K#
b10000 J
b10000 L#
b10000 N#
b10000 Q#
b1111 N
b1111 f"
b1111 m"
0!
#65
b1111 M
b1111 H"
b1111 v"
b1111 }"
b1111 2#
b1111 )#
b1111 1#
b1111 8#
b1111 /#
b1111 x"
b1111 7#
b1111 w"
b1111 ~"
b1111 =#
b1111 x
b1111 5"
b1111 p"
b1111 ;#
b1111 V
b1111 -"
b1111 2"
b1111 8"
b1111 U#
b101 ,
b101 7
b101 ;
b101 N"
b101 6
b101 9
0I
b11111111111111111010100000100010 d
b11111111111111111010100000100010 +"
1A#
b1 S
b1 R"
b1 T#
b10001 P
b10001 T"
b10001 I#
b10001 V#
b10001 Z#
b10101 R
b10101 V"
b10101 \#
b1010100000100010 O
b1010100000100010 *"
b1010100000100010 Q"
b1010100000100010 Y#
b1000010001101010000010001000 b
b1000010001101010000010001000 A"
b1000010001101010000010001000 O"
b100010 8
b1 y
b1 4"
b1 F#
0?#
b10000100011010100000100010 -
b10000100011010100000100010 4
b10000100011010100000100010 =
b10000100011010100000100010 f
b10000100011010100000100010 b"
b10000100011010100000100010 X#
b11111111111111101010000010011100 )"
b11111111111111101010000010011100 @"
b10100 e
b10100 P"
b10100 c"
1o
b1000010010101000000010000000 |
b1000010010101000000010000000 M"
b10100 #"
b10100 J"
b10100 e"
b10100 B#
b11111111111111101000000010010000 ""
b11111111111111101000000010010000 <"
b11111111111111101000000010010000 K"
0$"
0%"
b1 [
b1 7"
b1 g"
b10010 W
b10010 i"
b10010 E#
b10010 R#
b1111 Z
b1111 6"
b1111 h"
1!
#70
b11000 `
b11000 >"
b11000 ]
b11000 C"
b11000 P#
b10101101001011000000100000 c
b10101101001011000000100000 a"
b10101101001011000000100000 M#
b10101101001011000000100000 O#
b11000 U
b11000 ="
b11000 B"
b11000 `"
b11000 K#
b10100 J
b10100 L#
b10100 N#
b10100 Q#
0!
#75
b1 /#
b1 &#
b1 0#
b1 5#
b1 w"
b1 ~"
b1 =#
1%#
b11111111111111111111111111111111 M
b11111111111111111111111111111111 H"
b11111111111111111111111111111111 v"
b11111111111111111111111111111111 }"
b11111111111111111111111111111111 2#
b1 V
b1 -"
b1 2"
b1 8"
b1 U#
b1 x
b1 5"
b1 p"
b1 ;#
b10101 \
b10101 ;"
b10101 D"
1z"
b1 ,
b1 7
b1 ;
b1 N"
1(#
b1 6
b1 9
b11111111111111111111111111111110 x"
b11111111111111111111111111111110 7#
1y"
b11111111111111111111111111111111 )#
b11111111111111111111111111111111 1#
b11111111111111111111111111111111 8#
1I
b11111111111111111011000000100000 d
b11111111111111111011000000100000 +"
b11111111111111111010100000100010 t"
b11111111111111111010100000100010 :#
b11111111111111111010100000100010 <#
b0 y
b0 4"
b0 F#
0A#
1!#
b10101 Q
b10101 U"
b10101 J#
b10101 W#
b10101 [#
b0 S
b0 R"
b0 T#
b10100 P
b10100 T"
b10100 I#
b10100 V#
b10100 Z#
b10110 R
b10110 V"
b10110 \#
b1011000000100000 O
b1011000000100000 *"
b1011000000100000 Q"
b1011000000100000 Y#
b1010110100101100000010000000 b
b1010110100101100000010000000 A"
b1010110100101100000010000000 O"
b100000 8
0X
0Y
b10100 W
b10100 i"
b10100 E#
b10100 R#
b1111 ("
b1111 ,"
b1111 1"
b1111 I"
b1111 d"
b1111 k"
b1111 l"
1$"
b1000010001101010000010001000 h
b1000010001101010000010001000 E"
b1000010001101010000010001000 ^"
b11111111111111101010000010011100 K
b11111111111111101010000010011100 G"
b11111111111111101010000010011100 u"
b10100 g
b10100 _"
b10100 r"
b1010100000100010 j
b1010100000100010 ]"
b1010100000100010 q"
b1010100000100010 9#
b1 k
b1 3"
b1 F"
b1 \"
b10101 q
b10101 :"
b10101 X"
b10001 m
b10001 9"
b10001 Z"
b10001 D#
b10001 H#
b101 w
b101 W"
b101 n"
b101 |"
b101 ,#
b10101101001011000000100000 -
b10101101001011000000100000 4
b10101101001011000000100000 =
b10101101001011000000100000 f
b10101101001011000000100000 b"
b10101101001011000000100000 X#
b11111111111111101100000010011000 )"
b11111111111111101100000010011000 @"
b11000 e
b11000 P"
b11000 c"
1!
#80
b11100 `
b11100 >"
b11100 ]
b11100 C"
b11100 P#
b11100 U
b11100 ="
b11100 B"
b11100 `"
b11100 K#
b11000 J
b11000 L#
b11000 N#
b11000 Q#
b10001100100100000000101010 c
b10001100100100000000101010 a"
b10001100100100000000101010 M#
b10001100100100000000101010 O#
b0 N
b0 f"
b0 m"
0!
