pipeline_1/tb_pipeline1.vcd
$date
	Mon Oct 25 09:24:04 2021
$end
$version
	Icarus Verilog
$end
$timescale
	10ns
$end
$scope module tb_pipeline1 $end
$var reg 1 ! Clk $end
$var reg 1 " Run $end
$scope module u_pipeline1 $end
$var wire 1 ! clk $end
$var wire 1 " run $end
$var wire 1 # ctrl_RegWr $end
$var wire 1 $ ctrl_RegDst $end
$var wire 1 % ctrl_R_type $end
$var wire 1 & ctrl_MemtoReg $end
$var wire 1 ' ctrl_MemWr $end
$var wire 1 ( ctrl_Jump $end
$var wire 1 ) ctrl_ExtOp $end
$var wire 1 * ctrl_Branch $end
$var wire 1 + ctrl_ALUSrc $end
$var wire 3 , ctrl_ALUOp [2:0] $end
$var wire 32 - Instruction [31:0] $end
$scope module u_controller $end
$var wire 1 + ALUSrc $end
$var wire 1 * Branch $end
$var wire 1 ) ExtOp $end
$var wire 1 ( Jump $end
$var wire 1 ' MemWr $end
$var wire 1 & MemtoReg $end
$var wire 1 $ RegDst $end
$var wire 1 # RegWr $end
$var wire 1 . sw $end
$var wire 1 / ori $end
$var wire 1 0 lw $end
$var wire 1 1 jump $end
$var wire 1 2 beq $end
$var wire 1 3 addiu $end
$var wire 1 % R_type $end
$var wire 32 4 Instruction [31:0] $end
$var wire 3 5 ALUop [2:0] $end
$var wire 3 6 ALUfunc [2:0] $end
$var wire 3 7 ALUctr [2:0] $end
$scope module alud $end
$var wire 6 8 func [5:0] $end
$var wire 3 9 outCtr [2:0] $end
$upscope $end
$scope module opd $end
$var wire 6 : op [5:0] $end
$var wire 1 . sw $end
$var wire 1 / ori $end
$var wire 1 0 lw $end
$var wire 1 1 jump $end
$var wire 1 2 beq $end
$var wire 1 3 addiu $end
$var wire 1 % R_type $end
$upscope $end
$upscope $end
$scope module u_datapath $end
$var wire 3 ; ALUOp [2:0] $end
$var wire 1 + ALUSrc $end
$var wire 1 * Branch $end
$var wire 1 $ ExtOp $end
$var wire 1 ( Jump $end
$var wire 1 ' MemWr $end
$var wire 1 & MemtoReg $end
$var wire 1 ) RegDst $end
$var wire 1 # RegWr $end
$var wire 1 ! clk $end
$var wire 1 < ex_me_bubble $end
$var wire 1 = ex_me_bz $end
$var wire 1 > ex_me_stall $end
$var wire 1 ? id_ex_bubble $end
$var wire 1 @ id_ex_stall $end
$var wire 1 A if_id_bubble $end
$var wire 1 B if_id_stall $end
$var wire 1 C me_wr_bubble $end
$var wire 1 D me_wr_stall $end
$var wire 1 " run $end
$var wire 32 E u_pc_pc_out [31:0] $end
$var wire 32 F u_exec_target [31:0] $end
$var wire 1 G u_exec_alu_zero $end
$var wire 32 H u_exec_alu_result [31:0] $end
$var wire 32 I u_datamem_dataout [31:0] $end
$var wire 16 J si_im [15:0] $end
$var wire 5 K si_Rt [4:0] $end
$var wire 5 L si_Rs [4:0] $end
$var wire 5 M si_Rd [4:0] $end
$var wire 32 N rfile_busB [31:0] $end
$var wire 32 O rfile_busA [31:0] $end
$var wire 32 P pc_inc_out [31:0] $end
$var wire 32 Q me_wr_databack [31:0] $end
$var wire 5 R me_wr_Rw_out [4:0] $end
$var wire 1 S me_wr_RegWr_out $end
$var wire 1 T me_wr_MemtoReg_out $end
$var wire 32 U me_wr_Dataout_out [31:0] $end
$var wire 32 V me_wr_ALUout_out [31:0] $end
$var wire 5 W m_rt_rd_Rw [4:0] $end
$var wire 32 X m_real_newpc [31:0] $end
$var wire 32 Y m_bz_newpc [31:0] $end
$var wire 32 Z jump_target_pc [31:0] $end
$var wire 32 [ if_id_pc_inc_out [31:0] $end
$var wire 32 \ if_id_instruction_out [31:0] $end
$var wire 32 ] id_ex_pc_inc_out [31:0] $end
$var wire 32 ^ id_ex_jump_target [31:0] $end
$var wire 1 _ id_ex_jump $end
$var wire 16 ` id_ex_imm_out [15:0] $end
$var wire 32 a id_ex_busB_out [31:0] $end
$var wire 32 b id_ex_busA_out [31:0] $end
$var wire 5 c id_ex_Rt_out [4:0] $end
$var wire 1 d id_ex_RegWr_out $end
$var wire 1 e id_ex_RegDst_out $end
$var wire 5 f id_ex_Rd_out [4:0] $end
$var wire 1 g id_ex_MemtoReg_out $end
$var wire 1 h id_ex_MemWr_out $end
$var wire 1 i id_ex_ExtOp_out $end
$var wire 1 j id_ex_Branch_out $end
$var wire 1 k id_ex_ALUSrc_out $end
$var wire 3 l id_ex_ALUOp_out [2:0] $end
$var wire 32 m ex_me_jump_target [31:0] $end
$var wire 1 n ex_me_jump $end
$var wire 32 o ex_me_busB_out [31:0] $end
$var wire 1 p ex_me_Zero_out $end
$var wire 32 q ex_me_Target_out [31:0] $end
$var wire 5 r ex_me_Rw_out [4:0] $end
$var wire 1 s ex_me_RegWr_out $end
$var wire 1 t ex_me_MemtoReg_out $end
$var wire 1 u ex_me_MemWr_out $end
$var wire 1 v ex_me_Branch_out $end
$var wire 32 w ex_me_ALUout_out [31:0] $end
$var wire 32 x Instruction [31:0] $end
$scope module m_mem_to_reg $end
$var wire 1 T Selm $end
$var wire 32 y B [31:0] $end
$var wire 32 z A [31:0] $end
$var reg 32 { R [31:0] $end
$upscope $end
$scope module m_rt_rd $end
$var wire 1 e Selm $end
$var wire 5 | B [4:0] $end
$var wire 5 } A [4:0] $end
$var reg 5 ~ R [4:0] $end
$upscope $end
$scope module mux_bz_newpc $end
$var wire 1 = Selm $end
$var wire 32 !" B [31:0] $end
$var wire 32 "" A [31:0] $end
$var reg 32 #" R [31:0] $end
$upscope $end
$scope module mux_jump_newpc $end
$var wire 32 $" A [31:0] $end
$var wire 1 n Selm $end
$var wire 32 %" B [31:0] $end
$var reg 32 &" R [31:0] $end
$upscope $end
$scope module r_exec_mem $end
$var wire 1 ! Clk $end
$var wire 5 '" Rw [4:0] $end
$var wire 1 < bubble $end
$var wire 1 > stall $end
$var wire 32 (" jump_target [31:0] $end
$var wire 32 )" busB [31:0] $end
$var wire 1 G Zero $end
$var wire 32 *" Target [31:0] $end
$var wire 1 d RegWr $end
$var wire 1 g MemtoReg $end
$var wire 1 h MemWr $end
$var wire 1 _ Jump $end
$var wire 1 j Branch $end
$var wire 32 +" ALUout [31:0] $end
$var reg 32 ," ALUout_out [31:0] $end
$var reg 1 v Branch_out $end
$var reg 1 n Jump_out $end
$var reg 1 u MemWr_out $end
$var reg 1 t MemtoReg_out $end
$var reg 1 s RegWr_out $end
$var reg 5 -" Rw_out [4:0] $end
$var reg 32 ." Target_out [31:0] $end
$var reg 1 p Zero_out $end
$var reg 32 /" busB_out [31:0] $end
$var reg 32 0" jump_target_out [31:0] $end
$upscope $end
$scope module r_id_reg $end
$var wire 1 + ALUSrc $end
$var wire 3 1" ALUctr [2:0] $end
$var wire 1 * Branch $end
$var wire 1 ! Clk $end
$var wire 1 $ ExtOp $end
$var wire 1 ( Jump $end
$var wire 1 ' MemWr $end
$var wire 1 & MemtoReg $end
$var wire 1 ) RegDst $end
$var wire 1 # RegWr $end
$var wire 1 ? bubble $end
$var wire 32 2" jump_target [31:0] $end
$var wire 1 @ stall $end
$var wire 32 3" pc_inc [31:0] $end
$var wire 16 4" imm [15:0] $end
$var wire 32 5" busB [31:0] $end
$var wire 32 6" busA [31:0] $end
$var wire 5 7" Rt [4:0] $end
$var wire 5 8" Rd [4:0] $end
$var reg 1 k ALUSrc_out $end
$var reg 3 9" ALUctr_out [2:0] $end
$var reg 1 j Branch_out $end
$var reg 1 i ExtOp_out $end
$var reg 1 _ Jump_out $end
$var reg 1 h MemWr_out $end
$var reg 1 g MemtoReg_out $end
$var reg 5 :" Rd_out [4:0] $end
$var reg 1 e RegDst_out $end
$var reg 1 d RegWr_out $end
$var reg 5 ;" Rt_out [4:0] $end
$var reg 32 <" busA_out [31:0] $end
$var reg 32 =" busB_out [31:0] $end
$var reg 16 >" imm_out [15:0] $end
$var reg 32 ?" jump_target_out [31:0] $end
$var reg 32 @" pc_inc_out [31:0] $end
$upscope $end
$scope module r_if_reg $end
$var wire 1 ! Clk $end
$var wire 1 A bubble $end
$var wire 1 B stall $end
$var wire 32 A" pc_inc [31:0] $end
$var wire 32 B" instruction [31:0] $end
$var reg 32 C" instruction_out [31:0] $end
$var reg 32 D" pc_inc_out [31:0] $end
$upscope $end
$scope module r_mem_wr $end
$var wire 32 E" ALUout [31:0] $end
$var wire 1 ! Clk $end
$var wire 1 t MemtoReg $end
$var wire 1 s RegWr $end
$var wire 5 F" Rw [4:0] $end
$var wire 1 C bubble $end
$var wire 1 D stall $end
$var wire 32 G" Dataout [31:0] $end
$var reg 32 H" ALUout_out [31:0] $end
$var reg 32 I" Dataout_out [31:0] $end
$var reg 1 T MemtoReg_out $end
$var reg 1 S RegWr_out $end
$var reg 5 J" Rw_out [4:0] $end
$upscope $end
$scope module u_datamem $end
$var wire 1 ! Clk $end
$var wire 32 K" Datain [31:0] $end
$var wire 1 u MemWr $end
$var wire 32 L" ReadAddr [31:0] $end
$var wire 1 " Run $end
$var wire 32 M" WriteAddr [31:0] $end
$var reg 32 N" Dataout [31:0] $end
$upscope $end
$scope module u_exec $end
$var wire 1 k ALUSrc $end
$var wire 3 O" ALUctr [2:0] $end
$var wire 1 i ExtOp $end
$var wire 32 P" busA [31:0] $end
$var wire 32 Q" busB [31:0] $end
$var wire 16 R" imm [15:0] $end
$var wire 32 S" pc_inc [31:0] $end
$var wire 1 T" overflow $end
$var wire 32 U" imm32 [31:0] $end
$var wire 1 G Zero $end
$var wire 32 V" Target [31:0] $end
$var wire 32 W" ALUout [31:0] $end
$var wire 32 X" ALUinB [31:0] $end
$scope module ALU $end
$var wire 32 Y" H [31:0] $end
$var wire 1 Z" I $end
$var wire 1 [" J $end
$var wire 32 \" input_a [31:0] $end
$var wire 3 ]" input_aluctr [2:0] $end
$var wire 1 T" out_overflow $end
$var wire 1 G out_zero $end
$var wire 32 ^" out_result [31:0] $end
$var wire 32 _" input_b [31:0] $end
$var wire 1 `" Subctr $end
$var wire 1 a" SIGctr $end
$var wire 1 b" Ovctr $end
$var wire 2 c" OPctr [1:0] $end
$var wire 1 d" Less $end
$var wire 32 e" G [31:0] $end
$var wire 1 f" Add_zero $end
$var wire 1 g" Add_sign $end
$var wire 32 h" Add_result [31:0] $end
$var wire 1 i" Add_overflow $end
$var wire 1 j" Add_carry $end
$scope module d0 $end
$var wire 3 k" ALUctr [2:0] $end
$var wire 1 b" OVctr $end
$var wire 1 `" SUBctr $end
$var wire 1 a" SIGctr $end
$var wire 2 l" OPctr [1:0] $end
$upscope $end
$scope module multiplexer1 $end
$var wire 2 m" Sel [1:0] $end
$var wire 32 n" V [31:0] $end
$var wire 32 o" W [31:0] $end
$var wire 32 p" U [31:0] $end
$var reg 32 q" F [31:0] $end
$upscope $end
$scope module multiplexer2 $end
$var wire 32 r" A [31:0] $end
$var wire 32 s" B [31:0] $end
$var wire 1 d" Selm $end
$var reg 32 t" R [31:0] $end
$upscope $end
$scope module multiplexer3 $end
$var wire 1 Z" A $end
$var wire 1 [" B $end
$var wire 1 a" Selm $end
$var reg 1 d" R $end
$upscope $end
$scope module n_adder $end
$var wire 32 u" X [31:0] $end
$var wire 32 v" Y [31:0] $end
$var wire 1 `" carryin $end
$var reg 1 i" AddOverflow $end
$var reg 1 g" AddSign $end
$var reg 1 f" AddZero $end
$var reg 32 w" S [31:0] $end
$var reg 1 j" carryout $end
$upscope $end
$upscope $end
$scope module ext $end
$var wire 1 i ExtOp $end
$var wire 16 x" im [15:0] $end
$var wire 32 y" Im [31:0] $end
$upscope $end
$scope module muxALUinB $end
$var wire 32 z" A [31:0] $end
$var wire 32 {" B [31:0] $end
$var wire 1 k Selm $end
$var reg 32 |" R [31:0] $end
$upscope $end
$upscope $end
$scope module u_iunit $end
$var wire 1 ! Clk $end
$var wire 1 " Run $end
$var wire 32 }" pc_out [31:0] $end
$var wire 32 ~" pc [31:0] $end
$var wire 32 !# Instruction [31:0] $end
$scope module instructionMem $end
$var wire 1 ! clk $end
$var wire 1 " run $end
$var wire 32 "# addr [31:0] $end
$var reg 32 ## Instruction [31:0] $end
$upscope $end
$upscope $end
$scope module u_pc $end
$var wire 1 ! clk $end
$var wire 32 $# newpc [31:0] $end
$var wire 1 " run $end
$var reg 32 %# pc [31:0] $end
$upscope $end
$scope module u_rfile $end
$var wire 1 ! Clk $end
$var wire 1 # RegWr $end
$var wire 1 " Run $end
$var wire 5 &# Rw [4:0] $end
$var wire 32 '# busW [31:0] $end
$var wire 5 (# Rt [4:0] $end
$var wire 5 )# Rs [4:0] $end
$var reg 32 *# busA [31:0] $end
$var reg 32 +# busB [31:0] $end
$upscope $end
$scope module u_si $end
$var wire 32 ,# Instruction [31:0] $end
$var wire 16 -# im [15:0] $end
$var wire 5 .# Rt [4:0] $end
$var wire 5 /# Rs [4:0] $end
$var wire 5 0# Rd [4:0] $end
$upscope $end
$upscope $end
$upscope $end
$upscope $end
$enddefinitions $end
#0
$dumpvars
b0 0#
b0 /#
b0 .#
b0 -#
b0 ,#
b0 +#
b0 *#
b0 )#
b0 (#
b0 '#
b0 &#
b0 %#
b100 $#
b0 ##
b0 "#
b0 !#
b0 ~"
b100 }"
b0 |"
b0 {"
b0 z"
b0 y"
b0 x"
b0 w"
b0 v"
b0 u"
b0 t"
b1 s"
b0 r"
b0 q"
b0 p"
b0 o"
b0 n"
b0 m"
b0 l"
b0 k"
0j"
0i"
b0 h"
0g"
1f"
b0 e"
0d"
b0 c"
0b"
0a"
0`"
b0 _"
b0 ^"
b0 ]"
b0 \"
0["
0Z"
b0 Y"
b0 X"
b0 W"
b0 V"
b0 U"
0T"
b0 S"
b0 R"
b0 Q"
b0 P"
b0 O"
bx N"
b0 M"
b0 L"
b0 K"
b0 J"
b0 I"
b0 H"
bx G"
b0 F"
b0 E"
b0 D"
b0 C"
b0 B"
b100 A"
b0 @"
b0 ?"
b0 >"
b0 ="
b0 <"
b0 ;"
b0 :"
b0 9"
b0 8"
b0 7"
b0 6"
b0 5"
b0 4"
b0 3"
b0 2"
b1 1"
b0 0"
b0 /"
b0 ."
b0 -"
b0 ,"
b0 +"
b0 *"
b0 )"
b0 ("
b0 '"
b100 &"
b0 %"
b100 $"
b100 #"
b100 ""
b0 !"
b0 ~
b0 }
b0 |
b0 {
b0 z
b0 y
b0 x
b0 w
0v
0u
0t
0s
b0 r
b0 q
0p
b0 o
0n
b0 m
b0 l
0k
0j
0i
0h
0g
b0 f
0e
0d
b0 c
b0 b
b0 a
b0 `
0_
b0 ^
b0 ]
b0 \
b0 [
b0 Z
b100 Y
b100 X
b0 W
b0 V
b0 U
0T
0S
b0 R
b0 Q
b100 P
b0 O
b0 N
b0 M
b0 L
b0 K
b0 J
bx I
b0 H
1G
b0 F
b0 E
0D
0C
0B
0A
0@
0?
0>
0=
0<
b1 ;
b0 :
b1 9
b0 8
b1 7
b1 6
b1 5
b0 4
03
02
01
00
0/
0.
b0 -
b1 ,
0+
0*
0)
0(
0'
0&
1%
1$
1#
0"
0!
$end
#5
1b"
1a"
b100 [
b100 3"
b100 D"
1d
b1 l
b1 9"
b1 O"
b1 ]"
b1 k"
1i
1p
bx U
bx y
bx I"
1!
#10
1"
0!
#15
1s
b100 F
b100 *"
b100 V"
b100 ]
b100 @"
b100 S"
1!
#20
b1000 X
b1000 &"
b1000 $#
b1000 Y
b1000 #"
b1000 $"
b0 ,
b0 7
b0 ;
b0 1"
1)
1+
b1000000000000000000000 Z
b1000000000000000000000 2"
b0 5
0$
0%
1&
10
b100011 :
b1000 P
b1000 ""
b1000 A"
b1000 }"
b100 E
b100 ~"
b100 "#
b100 %#
b10001100000010000000000000000000 -
b10001100000010000000000000000000 4
b10001100000010000000000000000000 x
b10001100000010000000000000000000 B"
b10001100000010000000000000000000 !#
b10001100000010000000000000000000 ##
b1 I
b1 G"
b1 N"
0!
#25
0b"
b1000 K
b1000 7"
b1000 (#
b1000 .#
0a"
b10001100000010000000000000000000 \
b10001100000010000000000000000000 C"
b10001100000010000000000000000000 ,#
b1000 [
b1000 3"
b1000 D"
b1000000000000000000000 ^
b1000000000000000000000 ("
b1000000000000000000000 ?"
1g
1e
b0 l
b0 9"
b0 O"
b0 ]"
b0 k"
1k
0i
b100 q
b100 !"
b100 ."
1S
b1 U
b1 y
b1 I"
1!
#30
b1100 X
b1100 &"
b1100 $#
b1100 Y
b1100 #"
b1100 $"
0)
0+
b1 ,
b1 7
b1 ;
b1 1"
1#
b100001000010010000010000000 Z
b100001000010010000010000000 2"
b100000 8
b1 5
1$
1%
0&
00
b0 :
b1000010000100100000100000 -
b1000010000100100000100000 4
b1000010000100100000100000 x
b1000010000100100000100000 B"
b1000010000100100000100000 !#
b1000010000100100000100000 ##
b1100 P
b1100 ""
b1100 A"
b1100 }"
b1000 E
b1000 ~"
b1000 "#
b1000 %#
0!
#35
b1000 W
b1000 ~
b1000 '"
1b"
1a"
b1000 L
b1000 )#
b1000 /#
b1001 M
b1001 8"
b1001 0#
b100100000100000 J
b100100000100000 4"
b100100000100000 -#
b1000000000000000000000 m
b1000000000000000000000 %"
b1000000000000000000000 0"
1t
b100001000010010000010000000 ^
b100001000010010000010000000 ("
b100001000010010000010000000 ?"
b1000 F
b1000 *"
b1000 V"
b1000 ]
b1000 @"
b1000 S"
b1000 c
b1000 }
b1000 ;"
0g
0e
b1 l
b1 9"
b1 O"
b1 ]"
b1 k"
0k
1i
b1000010000100100000100000 \
b1000010000100100000100000 C"
b1000010000100100000100000 ,#
b1100 [
b1100 3"
b1100 D"
1!
#40
b10000 X
b10000 &"
b10000 $#
b10000 Y
b10000 #"
b10000 $"
b0 ,
b0 7
b0 ;
b0 1"
1)
1+
b100001010000000000000000000 Z
b100001010000000000000000000 2"
b0 8
b0 5
0$
0%
1&
10
b100011 :
b10000 P
b10000 ""
b10000 A"
b10000 }"
b1100 E
b1100 ~"
b1100 "#
b1100 %#
b10001101000010100000000000000000 -
b10001101000010100000000000000000 4
b10001101000010100000000000000000 x
b10001101000010100000000000000000 B"
b10001101000010100000000000000000 !#
b10001101000010100000000000000000 ##
0!
#45
b100100000100000 H
b100100000100000 +"
b100100000100000 W"
b100100000100000 ^"
b100100000100000 q"
0G
0f"
b100100000100000 h"
b100100000100000 p"
b100100000100000 w"
b100100000100000 n"
b100100000100000 Y"
b100100000100000 v"
b100100000100000 X"
b100100000100000 _"
b100100000100000 |"
b1001 W
b1001 ~
b1001 '"
b1 Q
b1 {
b1 '#
0b"
b1010 K
b1010 7"
b1010 (#
b1010 .#
b0 M
b0 8"
b0 0#
b0 J
b0 4"
b0 -#
b100100000100000 U"
b100100000100000 y"
b100100000100000 {"
0a"
b10001101000010100000000000000000 \
b10001101000010100000000000000000 C"
b10001101000010100000000000000000 ,#
b10000 [
b10000 3"
b10000 D"
b100001010000000000000000000 ^
b100001010000000000000000000 ("
b100001010000000000000000000 ?"
b10010000010001100 F
b10010000010001100 *"
b10010000010001100 V"
b1100 ]
b1100 @"
b1100 S"
b100100000100000 `
b100100000100000 >"
b100100000100000 R"
b100100000100000 x"
b1001 f
b1001 |
b1001 :"
1g
1e
b0 l
b0 9"
b0 O"
b0 ]"
b0 k"
1k
0i
b100001000010010000010000000 m
b100001000010010000010000000 %"
b100001000010010000010000000 0"
b1000 r
b1000 -"
b1000 F"
b1000 q
b1000 !"
b1000 ."
0t
1T
1!
#50
b10100 X
b10100 &"
b10100 $#
b10100 Y
b10100 #"
b10100 $"
b100101011000000000000000000 Z
b100101011000000000000000000 2"
b10001101001010110000000000000000 -
b10001101001010110000000000000000 4
b10001101001010110000000000000000 x
b10001101001010110000000000000000 B"
b10001101001010110000000000000000 !#
b10001101001010110000000000000000 ##
b10100 P
b10100 ""
b10100 A"
b10100 }"
b10000 E
b10000 ~"
b10000 "#
b10000 %#
0!
#55
b0 H
b0 +"
b0 W"
b0 ^"
b0 q"
1G
1f"
b0 h"
b0 p"
b0 w"
b0 n"
b0 Y"
b0 v"
b0 X"
b0 _"
b0 |"
b0 Q
b0 {
b0 '#
b0 W
b0 ~
b0 '"
b0 U"
b0 y"
b0 {"
b1001 L
b1001 )#
b1001 /#
b1011 K
b1011 7"
b1011 (#
b1011 .#
0T
b1000 R
b1000 J"
b1000 &#
b100001010000000000000000000 m
b100001010000000000000000000 %"
b100001010000000000000000000 0"
b1001 r
b1001 -"
b1001 F"
b100100000100000 w
b100100000100000 ,"
b100100000100000 E"
b100100000100000 L"
b100100000100000 M"
0p
b10010000010001100 q
b10010000010001100 !"
b10010000010001100 ."
1t
b100101011000000000000000000 ^
b100101011000000000000000000 ("
b100101011000000000000000000 ?"
b10000 F
b10000 *"
b10000 V"
b10000 ]
b10000 @"
b10000 S"
b0 `
b0 >"
b0 R"
b0 x"
b0 f
b0 |
b0 :"
b1010 c
b1010 }
b1010 ;"
b10001101001010110000000000000000 \
b10001101001010110000000000000000 C"
b10001101001010110000000000000000 ,#
b10100 [
b10100 3"
b10100 D"
1!
#60
b11000 X
b11000 &"
b11000 $#
b11000 Y
b11000 #"
b11000 $"
0)
0+
b1 ,
b1 7
b1 ;
b1 1"
1#
b101101010010110000010000000 Z
b101101010010110000010000000 2"
b100000 8
b1 5
1$
1%
0&
00
b0 :
b11000 P
b11000 ""
b11000 A"
b11000 }"
b10100 E
b10100 ~"
b10100 "#
b10100 %#
b1011010100101100000100000 -
b1011010100101100000100000 4
b1011010100101100000100000 x
b1011010100101100000100000 B"
b1011010100101100000100000 !#
b1011010100101100000100000 ##
bx I
bx G"
bx N"
0!
#65
b1011 W
b1011 ~
b1011 '"
bx Q
bx {
bx '#
1b"
b1011 L
b1011 )#
b1011 /#
b1010 K
b1010 7"
b1010 (#
b1010 .#
b1011 M
b1011 8"
b1011 0#
b101100000100000 J
b101100000100000 4"
b101100000100000 -#
1a"
b1011010100101100000100000 \
b1011010100101100000100000 C"
b1011010100101100000100000 ,#
b11000 [
b11000 3"
b11000 D"
b101101010010110000010000000 ^
b101101010010110000010000000 ("
b101101010010110000010000000 ?"
b10100 F
b10100 *"
b10100 V"
b10100 ]
b10100 @"
b10100 S"
b1011 c
b1011 }
b1011 ;"
0g
0e
b1 l
b1 9"
b1 O"
b1 ]"
b1 k"
0k
1i
b100101011000000000000000000 m
b100101011000000000000000000 %"
b100101011000000000000000000 0"
b0 r
b0 -"
b0 F"
b0 w
b0 ,"
b0 E"
b0 L"
b0 M"
1p
b10000 q
b10000 !"
b10000 ."
1T
b100100000100000 V
b100100000100000 z
b100100000100000 H"
b1001 R
b1001 J"
b1001 &#
bx U
bx y
bx I"
1!
#70
b11100 X
b11100 &"
b11100 $#
b11100 Y
b11100 #"
b11100 $"
0#
b0 ,
b0 7
b0 ;
b0 1"
1)
1+
b100001011000000000000000000 Z
b100001011000000000000000000 2"
b0 8
b0 5
0$
0%
1'
1.
b101011 :
b1 I
b1 G"
b1 N"
b10101101000010110000000000000000 -
b10101101000010110000000000000000 4
b10101101000010110000000000000000 x
b10101101000010110000000000000000 B"
b10101101000010110000000000000000 !#
b10101101000010110000000000000000 ##
b11100 P
b11100 ""
b11100 A"
b11100 }"
b11000 E
b11000 ~"
b11000 "#
b11000 %#
0!
#75
b101100000100000 H
b101100000100000 +"
b101100000100000 W"
b101100000100000 ^"
b101100000100000 q"
0G
0f"
b101100000100000 h"
b101100000100000 p"
b101100000100000 w"
b101100000100000 n"
b101100000100000 Y"
b101100000100000 v"
b101100000100000 X"
b101100000100000 _"
b101100000100000 |"
b1 Q
b1 {
b1 '#
0b"
b101100000100000 U"
b101100000100000 y"
b101100000100000 {"
0a"
b1000 L
b1000 )#
b1000 /#
b1011 K
b1011 7"
b1011 (#
b1011 .#
b0 M
b0 8"
b0 0#
b0 J
b0 4"
b0 -#
b0 V
b0 z
b0 H"
b0 R
b0 J"
b0 &#
b1 U
b1 y
b1 I"
b101101010010110000010000000 m
b101101010010110000010000000 %"
b101101010010110000010000000 0"
b1011 r
b1011 -"
b1011 F"
b10100 q
b10100 !"
b10100 ."
0t
b100001011000000000000000000 ^
b100001011000000000000000000 ("
b100001011000000000000000000 ?"
b10110000010011000 F
b10110000010011000 *"
b10110000010011000 V"
b11000 ]
b11000 @"
b11000 S"
b101100000100000 `
b101100000100000 >"
b101100000100000 R"
b101100000100000 x"
b1011 f
b1011 |
b1011 :"
b1010 c
b1010 }
b1010 ;"
0d
1h
1e
b0 l
b0 9"
b0 O"
b0 ]"
b0 k"
1k
0i
b10101101000010110000000000000000 \
b10101101000010110000000000000000 C"
b10101101000010110000000000000000 ,#
b11100 [
b11100 3"
b11100 D"
1!
#80
b100000 X
b100000 &"
b100000 $#
b100000 Y
b100000 #"
b100000 $"
b100 6
b100 9
0)
0+
b100 ,
b100 7
b100 ;
b100 1"
b101100000000000000000001100 Z
b101100000000000000000001100 2"
b11 8
0'
0.
b100 5
1*
12
b100 :
b100000 P
b100000 ""
b100000 A"
b100000 }"
b11100 E
b11100 ~"
b11100 "#
b11100 %#
b10001011000000000000000000011 -
b10001011000000000000000000011 4
b10001011000000000000000000011 x
b10001011000000000000000000011 B"
b10001011000000000000000000011 !#
b10001011000000000000000000011 ##
0!
#85
b0 e"
b0 o"
b0 t"
1G
1f"
1j"
b0 n"
0d"
b0 H
b0 +"
b0 W"
b0 ^"
b0 q"
b0 X"
b0 _"
b0 |"
b0 Q
b0 {
b0 '#
0["
0g"
b11111111111111111111111111111111 Y"
b11111111111111111111111111111111 v"
0Z"
b0 h"
b0 p"
b0 w"
b1011 L
b1011 )#
b1011 /#
b0 K
b0 7"
b0 (#
b0 .#
b11 J
b11 4"
b11 -#
b0 U"
b0 y"
b0 {"
1`"
b10001011000000000000000000011 \
b10001011000000000000000000011 C"
b10001011000000000000000000011 ,#
b100000 [
b100000 3"
b100000 D"
b101100000000000000000001100 ^
b101100000000000000000001100 ("
b101100000000000000000001100 ?"
b11100 F
b11100 *"
b11100 V"
b11100 ]
b11100 @"
b11100 S"
b0 `
b0 >"
b0 R"
b0 x"
b0 f
b0 |
b0 :"
b1011 c
b1011 }
b1011 ;"
0h
1j
0e
b100 l
b100 9"
b100 O"
b100 ]"
b100 k"
0k
b100001011000000000000000000 m
b100001011000000000000000000 %"
b100001011000000000000000000 0"
b101100000100000 w
b101100000100000 ,"
b101100000100000 E"
b101100000100000 L"
b101100000100000 M"
0p
b10110000010011000 q
b10110000010011000 !"
b10110000010011000 ."
0s
1u
0T
b1011 R
b1011 J"
b1011 &#
1!
#90
b100100 X
b100100 &"
b100100 $#
b100100 Y
b100100 #"
b100100 $"
b101 6
b101 9
1#
b101 ,
b101 7
b101 ;
b101 1"
b101101010010110000010001000 Z
b101101010010110000010001000 2"
b100010 8
1$
1%
b1 5
0*
02
b0 :
bx I
bx G"
bx N"
b1 N
b1 5"
b1 +#
b1011010100101100000100010 -
b1011010100101100000100010 4
b1011010100101100000100010 x
b1011010100101100000100010 B"
b1011010100101100000100010 !#
b1011010100101100000100010 ##
b100100 P
b100100 ""
b100100 A"
b100100 }"
b100000 E
b100000 ~"
b100000 "#
b100000 %#
0!
#95
b1 e"
b1 o"
b1 t"
1d"
b11111111111111111111111111111111 H
b11111111111111111111111111111111 +"
b11111111111111111111111111111111 W"
b11111111111111111111111111111111 ^"
b11111111111111111111111111111111 q"
b11100 X
b11100 &"
b11100 $#
1["
0G
1Z"
1g"
0f"
0j"
b11111111111111111111111111111111 h"
b11111111111111111111111111111111 p"
b11111111111111111111111111111111 w"
b1 n"
b11111111111111111111111111111110 Y"
b11111111111111111111111111111110 v"
b101100000100000 Q
b101100000100000 {
b101100000100000 '#
b11100 Y
b11100 #"
b11100 $"
b1 X"
b1 _"
b1 |"
b0 W
b0 ~
b0 '"
1b"
1=
b11 U"
b11 y"
b11 {"
1a"
b1010 K
b1010 7"
b1010 (#
b1010 .#
b1011 M
b1011 8"
b1011 0#
b101100000100010 J
b101100000100010 4"
b101100000100010 -#
0S
b101100000100000 V
b101100000100000 z
b101100000100000 H"
bx U
bx y
bx I"
b101100000000000000000001100 m
b101100000000000000000001100 %"
b101100000000000000000001100 0"
b0 w
b0 ,"
b0 E"
b0 L"
b0 M"
1p
b11100 q
b11100 !"
b11100 ."
1v
0u
b101101010010110000010001000 ^
b101101010010110000010001000 ("
b101101010010110000010001000 ?"
b101100 F
b101100 *"
b101100 V"
b100000 ]
b100000 @"
b100000 S"
b11 `
b11 >"
b11 R"
b11 x"
b1 a
b1 )"
b1 ="
b1 Q"
b1 z"
b0 c
b0 }
b0 ;"
1d
0j
b101 l
b101 9"
b101 O"
b101 ]"
b101 k"
1i
b1011010100101100000100010 \
b1011010100101100000100010 C"
b1011010100101100000100010 ,#
b100100 [
b100100 3"
b100100 D"
1!
#100
b1 ,
b1 7
b1 ;
b1 1"
b1 6
b1 9
b110001011011000000010000000 Z
b110001011011000000010000000 2"
b100000 8
b100000 P
b100000 ""
b100000 A"
b100000 }"
b11100 E
b11100 ~"
b11100 "#
b11100 %#
b1100010110110000000100000 -
b1100010110110000000100000 4
b1100010110110000000100000 x
b1100010110110000000100000 B"
b1100010110110000000100000 !#
b1100010110110000000100000 ##
b0 N
b0 5"
b0 +#
b1 I
b1 G"
b1 N"
0!
